10 
0 9 
0 0 0 44 0 0 0 0 64 6 
0 0 0 58 0 42 0 0 0 0 
0 0 0 47 0 0 1 0 72 39 
0 0 0 0 0 0 0 0 0 0 
0 0 0 0 0 0 67 6 11 53 
0 0 0 0 0 0 0 67 0 50 
0 0 0 0 0 0 0 6 91 0 
0 0 0 0 0 0 0 0 0 30 
0 0 0 0 0 0 0 0 0 54 
0 0 0 0 0 0 0 0 0 0 
